[gd_scene load_steps=4 format=3 uid="uid://dkl6l1q66beci"]

[ext_resource type="Texture2D" path="res://assets/sprites/headspin_duck.png" id="1_m6jnl"]

[sub_resource type="Animation" id="Animation_p1k5r"]
resource_name = "headspin"
length = 3.0
tracks/0/type = "value"
tracks/0/imported = false
tracks/0/enabled = true
tracks/0/path = NodePath("Sprite2D:frame")
tracks/0/interp = 1
tracks/0/loop_wrap = true
tracks/0/keys = {
"times": PackedFloat32Array(0, 1.3, 2.5),
"transitions": PackedFloat32Array(1, 1, 1),
"update": 1,
"values": [0, 1, 2]
}

[sub_resource type="AnimationLibrary" id="AnimationLibrary_ao51g"]
_data = {
"headspin": SubResource("Animation_p1k5r")
}

[node name="HeadSpin" type="Node2D"]

[node name="AnimationPlayer" type="AnimationPlayer" parent="."]
libraries = {
"": SubResource("AnimationLibrary_ao51g")
}

[node name="Sprite2D" type="Sprite2D" parent="."]
texture = ExtResource("1_m6jnl")
hframes = 3
frame = 2
