[gd_scene format=3 uid="uid://b2liu43d6fdrv"]

[node name="MusicVisualiserOverlay" type="Control"]
custom_minimum_size = Vector2(128, 0)
layout_mode = 3
anchors_preset = 9
anchor_bottom = 1.0
grow_vertical = 2

[node name="ColorRect" type="ColorRect" parent="."]
custom_minimum_size = Vector2(0, 4)
layout_mode = 1
offset_top = -2.0
offset_right = 128.0
offset_bottom = 2.0
color = Color(1, 0, 0.215686, 1)
